Etherum

62f4aba6f0b47e896d5fb444f27b6fdad3406ff620d5b3600cf092c8f0f0053e

{"id":"30911e59-c879-475d-9e7e-9aadfa6e74b6","address":"d499d520e5eb07db69585a0d8c9de94ff8526aa7","version":3,"crypto":{"kdf":"scrypt","cipherparams":{"iv":"48111f89fa6a2fb9865c64251a3d9035"},"kdfparams":{"n":262144,"dklen":32,"r":8,"p":1,"salt":"74a57ca82426b0de9513cb91bd7ca77f4e6c660a4abd6db021571d6497ac18cd"},"cipher":"aes-128-ctr","mac":"c9ac0f44c519757c44e36e39736774e139662240676bf0df5f6948bad86aa89a","ciphertext":"3b3a0bcff3823ce8c599081dd44fd69f632a12fec74462247c65219ab343bd44"}}